EESchema Schematic File Version 4
LIBS:radio-v1-cache
EELAYER 26 0
EELAYER END
$Descr A4 11693 8268
encoding utf-8
Sheet 1 4
Title ""
Date ""
Rev ""
Comp ""
Comment1 ""
Comment2 ""
Comment3 ""
Comment4 ""
$EndDescr
$Sheet
S 3900 2300 1100 750 
U 5EC971DB
F0 "MCU" 50
F1 "mcu.sch" 50
F2 "MCU_TX" I L 3900 2500 50 
F3 "MCU_RX" I L 3900 2400 50 
F4 "SPI1_CSn" O R 5000 2400 50 
F5 "SPI1_CLK" O R 5000 2500 50 
F6 "SPI1_MOSI" O R 5000 2600 50 
F7 "SPI1_MISO" I R 5000 2700 50 
F8 "RF_GDO0" I R 5000 2850 50 
F9 "RF_GDO2" I R 5000 2950 50 
$EndSheet
$Sheet
S 2700 2300 950  400 
U 5EC971ED
F0 "USB-PWR" 50
F1 "usb_pwr.sch" 50
F2 "FTDI_TX" I R 3650 2400 50 
F3 "FTDI_RX" I R 3650 2500 50 
$EndSheet
$Sheet
S 5800 2300 1000 750 
U 5EC971F2
F0 "RF" 50
F1 "rf.sch" 50
F2 "RF_MOSI" I L 5800 2600 50 
F3 "RF_MISO" O L 5800 2700 50 
F4 "RF_CLK" I L 5800 2500 50 
F5 "RF_CSn" I L 5800 2400 50 
F6 "RF_GDO0" O L 5800 2850 50 
F7 "RF_GDO2" O L 5800 2950 50 
$EndSheet
Wire Wire Line
	3900 2400 3650 2400
Wire Wire Line
	3650 2500 3900 2500
Wire Wire Line
	5800 2400 5000 2400
Wire Wire Line
	5000 2500 5800 2500
Wire Wire Line
	5800 2600 5000 2600
Wire Wire Line
	5000 2700 5800 2700
Wire Wire Line
	5000 2850 5800 2850
Wire Wire Line
	5000 2950 5800 2950
$EndSCHEMATC
