EESchema Schematic File Version 4
LIBS:radio-v1-cache
EELAYER 26 0
EELAYER END
$Descr A4 11693 8268
encoding utf-8
Sheet 4 4
Title ""
Date ""
Rev ""
Comp ""
Comment1 ""
Comment2 ""
Comment3 ""
Comment4 ""
$EndDescr
$Comp
L power:GND #PWR0151
U 1 1 5EC9C989
P 1000 5650
F 0 "#PWR0151" H 1000 5400 50  0001 C CNN
F 1 "GND" H 1005 5477 50  0000 C CNN
F 2 "" H 1000 5650 50  0001 C CNN
F 3 "" H 1000 5650 50  0001 C CNN
	1    1000 5650
	1    0    0    -1  
$EndComp
$Comp
L power:+3V3 #PWR0152
U 1 1 5ECCEA55
P 1500 1550
F 0 "#PWR0152" H 1500 1400 50  0001 C CNN
F 1 "+3V3" H 1515 1723 50  0000 C CNN
F 2 "" H 1500 1550 50  0001 C CNN
F 3 "" H 1500 1550 50  0001 C CNN
	1    1500 1550
	1    0    0    -1  
$EndComp
Text HLabel 1250 2500 0    50   Input ~ 0
RF_CSn
Text HLabel 1250 2300 0    50   Input ~ 0
RF_MOSI
Text HLabel 1250 2400 0    50   Output ~ 0
RF_MISO
Text HLabel 1250 2200 0    50   Input ~ 0
RF_CLK
$Comp
L radio-library:CC1101 U?
U 1 1 5ECD6125
P 2400 2500
AR Path="/5ECD6125" Ref="U?"  Part="1" 
AR Path="/5EC971F2/5ECD6125" Ref="U4"  Part="1" 
F 0 "U4" H 2375 3528 50  0000 C CNN
F 1 "CC1101" H 2375 3437 50  0000 C CNN
F 2 "radio-footprints:QFN-20_EP_4.8x4.8_Pitch0.5mm-RA" H 2400 2600 50  0001 C CNN
F 3 "" H 2400 2600 50  0001 C CNN
	1    2400 2500
	1    0    0    -1  
$EndComp
Wire Wire Line
	1500 2200 1250 2200
Wire Wire Line
	1250 2300 1500 2300
Wire Wire Line
	1250 2400 1500 2400
Wire Wire Line
	1250 2500 1500 2500
$Comp
L radio-library:C_Small C23
U 1 1 5ECA259A
P 2150 4000
F 0 "C23" H 1900 4050 50  0000 L CNN
F 1 "10pF" H 1750 3950 50  0000 L CNN
F 2 "radio-footprints:C_0402" H 2150 4000 50  0001 C CNN
F 3 "~" H 2150 4000 50  0001 C CNN
	1    2150 4000
	1    0    0    -1  
$EndComp
Wire Wire Line
	2350 3300 2350 3500
$Comp
L radio-library:C_Small C24
U 1 1 5ECA2781
P 2650 4000
F 0 "C24" H 2742 4046 50  0000 L CNN
F 1 "10pF" H 2742 3955 50  0000 L CNN
F 2 "radio-footprints:C_0402" H 2650 4000 50  0001 C CNN
F 3 "~" H 2650 4000 50  0001 C CNN
	1    2650 4000
	1    0    0    -1  
$EndComp
$Comp
L power:GND #PWR0153
U 1 1 5ECA2891
P 2400 4300
F 0 "#PWR0153" H 2400 4050 50  0001 C CNN
F 1 "GND" H 2405 4127 50  0000 C CNN
F 2 "" H 2400 4300 50  0001 C CNN
F 3 "" H 2400 4300 50  0001 C CNN
	1    2400 4300
	1    0    0    -1  
$EndComp
Connection ~ 2400 4250
Wire Wire Line
	2450 3300 2450 3500
$Comp
L radio-library:R_Small_US R171
U 1 1 5ECA4C7F
P 2950 3450
F 0 "R171" H 3018 3496 50  0000 L CNN
F 1 "56k 1%" H 3018 3405 50  0000 L CNN
F 2 "radio-footprints:R_0402" H 2950 3450 50  0001 C CNN
F 3 "~" H 2950 3450 50  0001 C CNN
	1    2950 3450
	1    0    0    -1  
$EndComp
$Comp
L power:GND #PWR0154
U 1 1 5ECA4CDF
P 2950 3650
F 0 "#PWR0154" H 2950 3400 50  0001 C CNN
F 1 "GND" H 2955 3477 50  0000 C CNN
F 2 "" H 2950 3650 50  0001 C CNN
F 3 "" H 2950 3650 50  0001 C CNN
	1    2950 3650
	1    0    0    -1  
$EndComp
Wire Wire Line
	2950 3300 2950 3350
Wire Wire Line
	2950 3650 2950 3550
$Comp
L power:GND #PWR0155
U 1 1 5ECA4F81
P 1850 3500
F 0 "#PWR0155" H 1850 3250 50  0001 C CNN
F 1 "GND" H 1855 3327 50  0000 C CNN
F 2 "" H 1850 3500 50  0001 C CNN
F 3 "" H 1850 3500 50  0001 C CNN
	1    1850 3500
	1    0    0    -1  
$EndComp
Wire Wire Line
	1800 3300 1800 3400
Wire Wire Line
	1800 3400 1850 3400
Wire Wire Line
	1850 3400 1900 3400
Wire Wire Line
	1900 3400 1900 3300
Connection ~ 1850 3400
Wire Wire Line
	1500 1950 1500 1650
Wire Wire Line
	1500 1650 2400 1650
Wire Wire Line
	2400 1650 3250 1650
Wire Wire Line
	3250 1650 3250 1950
Connection ~ 2400 1650
Wire Wire Line
	3250 1950 3250 2050
Connection ~ 3250 1950
Wire Wire Line
	3250 2050 3250 2150
Connection ~ 3250 2050
Wire Wire Line
	3250 2150 3250 2250
Connection ~ 3250 2150
Text HLabel 1250 2650 0    50   Output ~ 0
RF_GDO0
Text HLabel 1250 2750 0    50   Output ~ 0
RF_GDO2
Wire Wire Line
	1250 2650 1500 2650
Wire Wire Line
	1250 2750 1500 2750
Text Label 3350 2400 0    50   ~ 0
RF_n
Text Label 3350 2500 0    50   ~ 0
RF_p
Wire Wire Line
	3250 2400 3350 2400
Wire Wire Line
	3250 2500 3350 2500
Text Label 4100 1800 0    50   ~ 0
RF_n
Text Label 4100 1350 0    50   ~ 0
RF_p
$Comp
L radio-library:L_Small L131
U 1 1 5ECAFAE6
P 4550 1800
F 0 "L131" V 4735 1800 50  0000 C CNN
F 1 "27nH" V 4644 1800 50  0000 C CNN
F 2 "radio-footprints:C_0402" H 4550 1800 50  0001 C CNN
F 3 "~" H 4550 1800 50  0001 C CNN
	1    4550 1800
	0    -1   -1   0   
$EndComp
$Comp
L radio-library:C_Small C131
U 1 1 5ECAFD15
P 4400 1950
F 0 "C131" H 4492 1996 50  0000 L CNN
F 1 "3.9pF" H 4492 1905 50  0000 L CNN
F 2 "radio-footprints:C_0402" H 4400 1950 50  0001 C CNN
F 3 "~" H 4400 1950 50  0001 C CNN
	1    4400 1950
	1    0    0    -1  
$EndComp
$Comp
L power:GND #PWR0156
U 1 1 5ECB0615
P 4400 2100
F 0 "#PWR0156" H 4400 1850 50  0001 C CNN
F 1 "GND" H 4405 1927 50  0000 C CNN
F 2 "" H 4400 2100 50  0001 C CNN
F 3 "" H 4400 2100 50  0001 C CNN
	1    4400 2100
	1    0    0    -1  
$EndComp
$Comp
L radio-library:C_Small C121
U 1 1 5ECB153C
P 4800 1500
F 0 "C121" H 4892 1546 50  0000 L CNN
F 1 "3.9pF" H 4892 1455 50  0000 L CNN
F 2 "radio-footprints:C_0402" H 4800 1500 50  0001 C CNN
F 3 "~" H 4800 1500 50  0001 C CNN
	1    4800 1500
	1    0    0    -1  
$EndComp
$Comp
L radio-library:L_Small L121
U 1 1 5ECB158F
P 5050 1350
F 0 "L121" V 5235 1350 50  0000 C CNN
F 1 "27nH" V 5144 1350 50  0000 C CNN
F 2 "radio-footprints:C_0402" H 5050 1350 50  0001 C CNN
F 3 "~" H 5050 1350 50  0001 C CNN
	1    5050 1350
	0    -1   -1   0   
$EndComp
$Comp
L radio-library:L_Small L122
U 1 1 5ECB30A9
P 5050 1800
F 0 "L122" V 5000 1900 50  0000 R CNN
F 1 "22nH" V 4900 1900 50  0000 R CNN
F 2 "radio-footprints:C_0402" H 5050 1800 50  0001 C CNN
F 3 "~" H 5050 1800 50  0001 C CNN
	1    5050 1800
	0    -1   -1   0   
$EndComp
$Comp
L radio-library:C_Small C124
U 1 1 5ECB319D
P 5300 2250
F 0 "C124" H 5000 2300 50  0000 L CNN
F 1 "220pF" H 5000 2200 50  0000 L CNN
F 2 "radio-footprints:C_0402" H 5300 2250 50  0001 C CNN
F 3 "~" H 5300 2250 50  0001 C CNN
	1    5300 2250
	1    0    0    -1  
$EndComp
$Comp
L power:GND #PWR0157
U 1 1 5ECB3838
P 5300 2400
F 0 "#PWR0157" H 5300 2150 50  0001 C CNN
F 1 "GND" H 5305 2227 50  0000 C CNN
F 2 "" H 5300 2400 50  0001 C CNN
F 3 "" H 5300 2400 50  0001 C CNN
	1    5300 2400
	1    0    0    -1  
$EndComp
Wire Wire Line
	5300 2350 5300 2400
$Comp
L radio-library:C_Small C122
U 1 1 5ECB451C
P 5700 2250
F 0 "C122" H 5850 2200 50  0000 C CNN
F 1 "8.2pF" H 5850 2300 50  0000 C CNN
F 2 "radio-footprints:C_0402" H 5700 2250 50  0001 C CNN
F 3 "~" H 5700 2250 50  0001 C CNN
	1    5700 2250
	-1   0    0    1   
$EndComp
$Comp
L radio-library:L_Small L123
U 1 1 5ECB54A5
P 6050 1800
F 0 "L123" V 6235 1800 50  0000 C CNN
F 1 "27nH" V 6144 1800 50  0000 C CNN
F 2 "radio-footprints:C_0402" H 6050 1800 50  0001 C CNN
F 3 "~" H 6050 1800 50  0001 C CNN
	1    6050 1800
	0    -1   -1   0   
$EndComp
$Comp
L radio-library:C_Small C123
U 1 1 5ECB5D41
P 6250 2000
F 0 "C123" H 6342 2046 50  0000 L CNN
F 1 "5.6pF" H 6342 1955 50  0000 L CNN
F 2 "radio-footprints:C_0402" H 6250 2000 50  0001 C CNN
F 3 "~" H 6250 2000 50  0001 C CNN
	1    6250 2000
	1    0    0    -1  
$EndComp
Wire Wire Line
	6150 1800 6250 1800
Wire Wire Line
	6250 1800 6250 1900
$Comp
L power:GND #PWR0158
U 1 1 5ECB66A2
P 6250 2200
F 0 "#PWR0158" H 6250 1950 50  0001 C CNN
F 1 "GND" H 6255 2027 50  0000 C CNN
F 2 "" H 6250 2200 50  0001 C CNN
F 3 "" H 6250 2200 50  0001 C CNN
	1    6250 2200
	1    0    0    -1  
$EndComp
Wire Wire Line
	6250 2100 6250 2200
Connection ~ 6250 1800
$Comp
L radio-library:C_Small C125
U 1 1 5ECB7A46
P 6850 1800
F 0 "C125" V 6621 1800 50  0000 C CNN
F 1 "220pF" V 6712 1800 50  0000 C CNN
F 2 "radio-footprints:C_0402" H 6850 1800 50  0001 C CNN
F 3 "~" H 6850 1800 50  0001 C CNN
	1    6850 1800
	0    1    1    0   
$EndComp
$Comp
L radio-library:Antenna AE1
U 1 1 5ECBD01E
P 7200 1600
F 0 "AE1" H 7328 1565 50  0000 L CNN
F 1 "Antenna" H 7328 1474 50  0000 L CNN
F 2 "radio-footprints:SMA" H 7200 1600 50  0001 C CNN
F 3 "~" H 7200 1600 50  0001 C CNN
	1    7200 1600
	1    0    0    -1  
$EndComp
Wire Wire Line
	6950 1800 7200 1800
Wire Wire Line
	4400 2050 4400 2100
$Comp
L radio-library:C_Small C51
U 1 1 5ECC9033
P 1750 5450
F 0 "C51" H 1850 5500 50  0000 L CNN
F 1 "100nF" H 1850 5400 50  0000 L CNN
F 2 "radio-footprints:C_0402" H 1750 5450 50  0001 C CNN
F 3 "~" H 1750 5450 50  0001 C CNN
	1    1750 5450
	1    0    0    -1  
$EndComp
$Comp
L power:GND #PWR0159
U 1 1 5ECC9039
P 1750 5600
F 0 "#PWR0159" H 1750 5350 50  0001 C CNN
F 1 "GND" H 1755 5427 50  0000 C CNN
F 2 "" H 1750 5600 50  0001 C CNN
F 3 "" H 1750 5600 50  0001 C CNN
	1    1750 5600
	1    0    0    -1  
$EndComp
Wire Wire Line
	1750 5550 1750 5600
Wire Wire Line
	3250 2650 3350 2650
Wire Wire Line
	1500 1650 1500 1550
Connection ~ 1500 1650
Text Notes 750  4900 0    50   ~ 10
CC1101 Decoupling
Text Notes 4000 1100 0    50   ~ 10
RF Impedance Matching Network
$Comp
L power:+3V3 #PWR0160
U 1 1 5ECCDB1F
P 1000 5200
F 0 "#PWR0160" H 1000 5050 50  0001 C CNN
F 1 "+3V3" H 1015 5373 50  0000 C CNN
F 2 "" H 1000 5200 50  0001 C CNN
F 3 "" H 1000 5200 50  0001 C CNN
	1    1000 5200
	1    0    0    -1  
$EndComp
$Comp
L radio-library:C_Small C41
U 1 1 5ECCDB50
P 1000 5400
F 0 "C41" H 1100 5450 50  0000 L CNN
F 1 "100nF" H 1100 5350 50  0000 L CNN
F 2 "radio-footprints:C_0402" H 1000 5400 50  0001 C CNN
F 3 "~" H 1000 5400 50  0001 C CNN
	1    1000 5400
	1    0    0    -1  
$EndComp
Wire Wire Line
	1000 5200 1000 5300
Wire Wire Line
	1000 5500 1000 5650
$Comp
L power:GND #PWR0161
U 1 1 5ECD0CB0
P 2450 5650
F 0 "#PWR0161" H 2450 5400 50  0001 C CNN
F 1 "GND" H 2455 5477 50  0000 C CNN
F 2 "" H 2450 5650 50  0001 C CNN
F 3 "" H 2450 5650 50  0001 C CNN
	1    2450 5650
	1    0    0    -1  
$EndComp
$Comp
L power:+3V3 #PWR0162
U 1 1 5ECD0CB6
P 2450 5200
F 0 "#PWR0162" H 2450 5050 50  0001 C CNN
F 1 "+3V3" H 2465 5373 50  0000 C CNN
F 2 "" H 2450 5200 50  0001 C CNN
F 3 "" H 2450 5200 50  0001 C CNN
	1    2450 5200
	1    0    0    -1  
$EndComp
$Comp
L radio-library:C_Small C181
U 1 1 5ECD0CBC
P 2450 5400
F 0 "C181" H 2550 5450 50  0000 L CNN
F 1 "220pF" H 2550 5350 50  0000 L CNN
F 2 "radio-footprints:C_0402" H 2450 5400 50  0001 C CNN
F 3 "~" H 2450 5400 50  0001 C CNN
	1    2450 5400
	1    0    0    -1  
$EndComp
Wire Wire Line
	2450 5200 2450 5300
Wire Wire Line
	2450 5500 2450 5650
Text Notes 700  6000 0    50   Italic 0
Place by pin 4.
Text Notes 2150 6000 0    50   Italic 0
Place by pin 18.
$Comp
L power:GND #PWR0163
U 1 1 5ECD87C4
P 3250 5650
F 0 "#PWR0163" H 3250 5400 50  0001 C CNN
F 1 "GND" H 3255 5477 50  0000 C CNN
F 2 "" H 3250 5650 50  0001 C CNN
F 3 "" H 3250 5650 50  0001 C CNN
	1    3250 5650
	1    0    0    -1  
$EndComp
$Comp
L power:+3V3 #PWR0164
U 1 1 5ECD87CA
P 3250 5200
F 0 "#PWR0164" H 3250 5050 50  0001 C CNN
F 1 "+3V3" H 3265 5373 50  0000 C CNN
F 2 "" H 3250 5200 50  0001 C CNN
F 3 "" H 3250 5200 50  0001 C CNN
	1    3250 5200
	1    0    0    -1  
$EndComp
$Comp
L radio-library:C_Small C151
U 1 1 5ECD87D0
P 3250 5400
F 0 "C151" H 3350 5450 50  0000 L CNN
F 1 "220pF" H 3350 5350 50  0000 L CNN
F 2 "radio-footprints:C_0402" H 3250 5400 50  0001 C CNN
F 3 "~" H 3250 5400 50  0001 C CNN
	1    3250 5400
	1    0    0    -1  
$EndComp
Wire Wire Line
	3250 5200 3250 5300
Wire Wire Line
	3250 5500 3250 5650
Text Notes 2950 6000 0    50   Italic 0
Place by pin 15.
$Comp
L power:GND #PWR0165
U 1 1 5ECD9B22
P 4050 5650
F 0 "#PWR0165" H 4050 5400 50  0001 C CNN
F 1 "GND" H 4055 5477 50  0000 C CNN
F 2 "" H 4050 5650 50  0001 C CNN
F 3 "" H 4050 5650 50  0001 C CNN
	1    4050 5650
	1    0    0    -1  
$EndComp
$Comp
L power:+3V3 #PWR0166
U 1 1 5ECD9B28
P 4050 5200
F 0 "#PWR0166" H 4050 5050 50  0001 C CNN
F 1 "+3V3" H 4065 5373 50  0000 C CNN
F 2 "" H 4050 5200 50  0001 C CNN
F 3 "" H 4050 5200 50  0001 C CNN
	1    4050 5200
	1    0    0    -1  
$EndComp
$Comp
L radio-library:C_Small C141
U 1 1 5ECD9B2E
P 4050 5400
F 0 "C141" H 4150 5450 50  0000 L CNN
F 1 "10nF" H 4150 5350 50  0000 L CNN
F 2 "radio-footprints:C_0402" H 4050 5400 50  0001 C CNN
F 3 "~" H 4050 5400 50  0001 C CNN
	1    4050 5400
	1    0    0    -1  
$EndComp
Wire Wire Line
	4050 5200 4050 5300
Wire Wire Line
	4050 5500 4050 5650
Text Notes 3750 6000 0    50   Italic 0
Place by pin 14.
$Comp
L power:GND #PWR0167
U 1 1 5ECDB026
P 4850 5650
F 0 "#PWR0167" H 4850 5400 50  0001 C CNN
F 1 "GND" H 4855 5477 50  0000 C CNN
F 2 "" H 4850 5650 50  0001 C CNN
F 3 "" H 4850 5650 50  0001 C CNN
	1    4850 5650
	1    0    0    -1  
$EndComp
$Comp
L power:+3V3 #PWR0168
U 1 1 5ECDB02C
P 4850 5200
F 0 "#PWR0168" H 4850 5050 50  0001 C CNN
F 1 "+3V3" H 4865 5373 50  0000 C CNN
F 2 "" H 4850 5200 50  0001 C CNN
F 3 "" H 4850 5200 50  0001 C CNN
	1    4850 5200
	1    0    0    -1  
$EndComp
$Comp
L radio-library:C_Small C111
U 1 1 5ECDB032
P 4850 5400
F 0 "C111" H 4950 5450 50  0000 L CNN
F 1 "220pF" H 4950 5350 50  0000 L CNN
F 2 "radio-footprints:C_0402" H 4850 5400 50  0001 C CNN
F 3 "~" H 4850 5400 50  0001 C CNN
	1    4850 5400
	1    0    0    -1  
$EndComp
Wire Wire Line
	4850 5200 4850 5300
Wire Wire Line
	4850 5500 4850 5650
Text Notes 4550 6000 0    50   Italic 0
Place by pin 11.
$Comp
L power:GND #PWR0169
U 1 1 5ECDC709
P 5650 5650
F 0 "#PWR0169" H 5650 5400 50  0001 C CNN
F 1 "GND" H 5655 5477 50  0000 C CNN
F 2 "" H 5650 5650 50  0001 C CNN
F 3 "" H 5650 5650 50  0001 C CNN
	1    5650 5650
	1    0    0    -1  
$EndComp
$Comp
L power:+3V3 #PWR0170
U 1 1 5ECDC70F
P 5650 5200
F 0 "#PWR0170" H 5650 5050 50  0001 C CNN
F 1 "+3V3" H 5665 5373 50  0000 C CNN
F 2 "" H 5650 5200 50  0001 C CNN
F 3 "" H 5650 5200 50  0001 C CNN
	1    5650 5200
	1    0    0    -1  
$EndComp
$Comp
L radio-library:C_Small C91
U 1 1 5ECDC715
P 5650 5400
F 0 "C91" H 5750 5450 50  0000 L CNN
F 1 "10nF" H 5750 5350 50  0000 L CNN
F 2 "radio-footprints:C_0402" H 5650 5400 50  0001 C CNN
F 3 "~" H 5650 5400 50  0001 C CNN
	1    5650 5400
	1    0    0    -1  
$EndComp
Wire Wire Line
	5650 5200 5650 5300
Wire Wire Line
	5650 5500 5650 5650
Text Notes 5350 6000 0    50   Italic 0
Place by pin 9.
Text Label 3350 2650 0    50   ~ 0
dcoupl
Text Label 1750 5250 1    50   ~ 0
dcoupl
Wire Wire Line
	1750 5250 1750 5350
Text Notes 1450 6000 0    50   Italic 0
Place by pin 5.
Wire Wire Line
	6250 1800 6750 1800
Text Notes 6450 2800 0    50   Italic 0
Note: L124, L125, L132, C126\nare omitted from reference\nschematic for 433 MHz radio.
Text Notes 6450 1800 0    50   Italic 0
L124
Text Notes 6750 2000 0    50   Italic 0
C126, L125
Wire Notes Line
	650  4750 6050 4750
Wire Notes Line
	6050 4750 6050 6050
Wire Notes Line
	6050 6050 650  6050
Wire Notes Line
	650  6050 650  4750
Wire Wire Line
	1850 3400 1850 3500
Text Notes 800  1250 0    50   ~ 10
CC1101 Transceiver\n433 MHz
Wire Notes Line
	3800 950  3800 4550
Wire Notes Line
	3800 4550 650  4550
Wire Notes Line
	650  4550 650  950 
Wire Notes Line
	650  950  3800 950 
$Comp
L radio-library:Crystal Y2
U 1 1 5ECFD0E1
P 2400 3750
F 0 "Y2" H 2400 4018 50  0000 C CNN
F 1 "Crystal" H 2400 3927 50  0000 C CNN
F 2 "radio-footprints:Crystal_SMD_SeikoEpson_TSX3225-4pin_3.2x2.5mm" H 2400 3750 50  0001 C CNN
F 3 "~" H 2400 3750 50  0001 C CNN
	1    2400 3750
	1    0    0    -1  
$EndComp
Wire Wire Line
	2200 3750 2150 3750
Wire Wire Line
	2150 3750 2150 3900
Wire Wire Line
	2600 3750 2650 3750
Wire Wire Line
	2650 3750 2650 3900
Wire Wire Line
	2650 4100 2650 4250
Wire Wire Line
	2400 4250 2650 4250
Wire Wire Line
	2150 4250 2150 4100
Wire Wire Line
	2150 4250 2400 4250
Wire Wire Line
	2400 4300 2400 4250
Wire Wire Line
	2250 3850 2250 3950
Wire Wire Line
	2550 3950 2550 3850
Wire Wire Line
	2250 3950 2400 3950
Wire Wire Line
	2400 3950 2400 4250
Connection ~ 2400 3950
Wire Wire Line
	2400 3950 2550 3950
Wire Wire Line
	2150 3500 2150 3750
Wire Wire Line
	2150 3500 2350 3500
Connection ~ 2150 3750
Wire Wire Line
	2650 3500 2650 3750
Wire Wire Line
	2450 3500 2650 3500
Connection ~ 2650 3750
Wire Wire Line
	4800 1350 4800 1400
Wire Wire Line
	4800 1350 4950 1350
Connection ~ 4800 1350
Wire Wire Line
	5150 1350 5300 1350
Wire Wire Line
	5300 1350 5300 2150
Wire Wire Line
	4450 1800 4400 1800
Wire Wire Line
	4650 1800 4800 1800
Wire Wire Line
	4800 1800 4800 1600
Wire Wire Line
	4800 1800 4950 1800
Connection ~ 4800 1800
Wire Wire Line
	4100 1350 4800 1350
Wire Wire Line
	4400 1850 4400 1800
Connection ~ 4400 1800
Wire Wire Line
	4400 1800 4100 1800
Wire Wire Line
	5150 1800 5700 1800
Wire Wire Line
	5700 1800 5700 2150
$Comp
L power:GND #PWR0173
U 1 1 5ED21EA5
P 5700 2400
F 0 "#PWR0173" H 5700 2150 50  0001 C CNN
F 1 "GND" H 5705 2227 50  0000 C CNN
F 2 "" H 5700 2400 50  0001 C CNN
F 3 "" H 5700 2400 50  0001 C CNN
	1    5700 2400
	1    0    0    -1  
$EndComp
Wire Wire Line
	5700 2400 5700 2350
Wire Wire Line
	5700 1800 5950 1800
Connection ~ 5700 1800
Wire Notes Line
	7700 950  3900 950 
Wire Notes Line
	3900 950  3900 2950
Wire Notes Line
	7700 950  7700 2950
Wire Notes Line
	3900 2950 7700 2950
Text Notes 700  4450 0    50   Italic 0
Load capacitors sized for 3 pF stray\nand required 8 pF load capacitence.
$EndSCHEMATC
